<svg width="16" height="10" viewBox="0 0 16 10" fill="none" xmlns="http://www.w3.org/2000/svg">
<path d="M2.22182 10L0 7.82533L8 0L16 7.82533L13.7782 10L8 4.34933L2.22182 10Z" fill="#0D38E0"/>
</svg>
