<svg width="24" height="24" viewBox="0 0 24 24" fill="none" xmlns="http://www.w3.org/2000/svg">
<path d="M5.52 18.48C4.152 17.112 4.152 14.888 5.52 13.52L8.72 10.32L7.2 8.79999L4 12C1.792 14.208 1.792 17.792 4 20C6.208 22.208 9.792 22.208 12 20L15.2 16.8L13.68 15.28L10.48 18.48C9.112 19.848 6.888 19.848 5.52 18.48ZM9.6 16L16 9.59999L14.4 7.99999L8 14.4L9.6 16ZM12 3.99999L8.8 7.19999L10.32 8.71999L13.52 5.51999C14.888 4.15199 17.112 4.15199 18.48 5.51999C19.848 6.88799 19.848 9.11199 18.48 10.48L15.28 13.68L16.8 15.2L20 12C22.208 9.79199 22.208 6.20799 20 3.99999C17.792 1.79199 14.208 1.79199 12 3.99999Z" fill="#0D38E0"/>
</svg>
