<svg width="66" height="92" viewBox="0 0 66 92" fill="none" xmlns="http://www.w3.org/2000/svg">
<rect x="1" y="1" width="64" height="90" stroke="#0D38E0" stroke-width="2"/>
<path d="M1 63H65V83H1V63Z" fill="#0D38E0"/>
<path fill-rule="evenodd" clip-rule="evenodd" d="M64 64H2V82H64V64ZM1 63V83H65V63H1Z" fill="#0D38E0"/>
<path d="M24.1931 77.06C24.6491 77.06 24.9611 76.772 24.9611 76.304C24.9611 75.836 24.6491 75.548 24.1931 75.548C23.7251 75.548 23.4131 75.836 23.4131 76.304C23.4131 76.772 23.7251 77.06 24.1931 77.06Z" fill="white"/>
<path d="M29.8738 70.484C29.1538 70.484 28.4218 70.808 27.9178 71.456V70.604H26.7418V78.92H27.9178V76.16C28.4218 76.796 29.1538 77.12 29.8738 77.12C31.4698 77.12 32.4658 75.932 32.4658 73.82C32.4658 71.756 31.5418 70.484 29.8738 70.484ZM29.5858 76.136C28.8538 76.136 28.2898 75.836 27.9178 75.14V72.404C28.2778 71.768 28.8178 71.468 29.5258 71.468C30.6178 71.468 31.2778 72.38 31.2778 73.808C31.2778 75.176 30.7138 76.136 29.5858 76.136Z" fill="white"/>
<path d="M37.0222 70.484C36.3022 70.484 35.5702 70.808 35.0662 71.456V70.604H33.8902V78.92H35.0662V76.16C35.5702 76.796 36.3022 77.12 37.0222 77.12C38.6182 77.12 39.6142 75.932 39.6142 73.82C39.6142 71.756 38.6902 70.484 37.0222 70.484ZM36.7342 76.136C36.0022 76.136 35.4382 75.836 35.0662 75.14V72.404C35.4262 71.768 35.9662 71.468 36.6742 71.468C37.7662 71.468 38.4262 72.38 38.4262 73.808C38.4262 75.176 37.8622 76.136 36.7342 76.136Z" fill="white"/>
<path d="M44.0146 76.052C43.7986 76.172 43.5707 76.22 43.3666 76.22C42.7666 76.22 42.5386 75.92 42.5386 75.056V71.528H44.0866V70.604H42.5386V68.6H41.3506V70.604H40.3426V71.528H41.3506V75.068C41.3506 76.52 41.9986 77.12 43.3306 77.12C43.6066 77.12 43.9546 77.084 44.2666 76.94L44.0146 76.052Z" fill="white"/>
<path fill-rule="evenodd" clip-rule="evenodd" d="M32.3423 14.0662C32.3423 14.0659 32.3421 14.0658 32.3419 14.0658C21.5216 14.0658 12.75 22.8374 12.75 33.6577C12.75 44.478 21.5216 53.2495 32.3419 53.2495C42.8269 53.2495 51.3882 45.0131 51.9087 34.6574C51.9364 34.1058 51.4861 33.6577 50.9338 33.6577C50.3815 33.6577 49.9367 34.1063 49.9058 34.6577C49.3874 43.9081 41.722 51.2495 32.3419 51.2495C22.6262 51.2495 14.75 43.3734 14.75 33.6577C14.75 23.9419 22.6262 16.0658 32.3419 16.0658C32.3421 16.0658 32.3423 16.0656 32.3423 16.0654V14.0662Z" fill="#0D38E0"/>
<path d="M32.5 34V13C48.9 13.8 53 27.3333 53 34H32.5Z" stroke="#0D38E0" stroke-width="2"/>
</svg>
