<svg width="66" height="92" viewBox="0 0 66 92" fill="none" xmlns="http://www.w3.org/2000/svg">
<rect x="1" y="1" width="64" height="90" stroke="#080C80" stroke-width="2"/>
<path d="M1 63H65V83H1V63Z" fill="#080C80"/>
<path d="M22.7087 77.06C23.1647 77.06 23.4767 76.772 23.4767 76.304C23.4767 75.836 23.1647 75.548 22.7087 75.548C22.2407 75.548 21.9287 75.836 21.9287 76.304C21.9287 76.772 22.2407 77.06 22.7087 77.06Z" fill="white"/>
<path d="M29.187 68.6V71.432C28.683 70.796 27.963 70.484 27.243 70.484C25.647 70.484 24.651 71.672 24.651 73.784C24.651 75.848 25.575 77.12 27.243 77.12C27.963 77.12 28.683 76.796 29.187 76.16V77H30.375V68.6H29.187ZM27.591 76.136C26.499 76.136 25.839 75.224 25.839 73.796C25.839 72.428 26.403 71.468 27.531 71.468C28.251 71.468 28.815 71.756 29.187 72.44V75.224C28.827 75.848 28.287 76.136 27.591 76.136Z" fill="white"/>
<path d="M34.7995 70.484C32.9755 70.484 31.7875 71.852 31.7875 73.772C31.7875 75.752 32.9755 77.12 34.7995 77.12C36.6235 77.12 37.8115 75.752 37.8115 73.772C37.8115 71.852 36.6235 70.484 34.7995 70.484ZM34.7995 76.136C33.6835 76.136 32.9635 75.26 32.9635 73.772C32.9635 72.32 33.6835 71.468 34.7995 71.468C35.9155 71.468 36.6355 72.32 36.6355 73.772C36.6355 75.26 35.9155 76.136 34.7995 76.136Z" fill="white"/>
<path d="M41.8541 76.136C40.7381 76.136 40.0181 75.26 40.0181 73.772C40.0181 72.32 40.7381 71.468 41.8541 71.468C42.7181 71.468 43.2821 71.984 43.4861 72.872L44.6141 72.608C44.3021 71.348 43.3421 70.484 41.8541 70.484C40.0301 70.484 38.8421 71.852 38.8421 73.772C38.8421 75.752 40.0301 77.12 41.8541 77.12C43.3421 77.12 44.3021 76.256 44.6141 74.996L43.4861 74.732C43.2821 75.62 42.7181 76.136 41.8541 76.136Z" fill="white"/>
<line x1="13" y1="14" x2="29" y2="14" stroke="#080C80" stroke-width="2"/>
<line x1="13" y1="26" x2="53" y2="26" stroke="#080C80" stroke-width="2"/>
<line x1="13" y1="38" x2="53" y2="38" stroke="#080C80" stroke-width="2"/>
<line x1="13" y1="50" x2="53" y2="50" stroke="#080C80" stroke-width="2"/>
</svg>
